{
  "arch": "arm",
  "os": "none",
  "vendor": "gem5",

  "llvm-target": "armv7h-none-eabi",
  "target-endian": "little",
  "target-pointer-width": "32",
  "dynamic-linking": false,
  "eliminate-frame-pointer": false,
  "morestack": false,
  "target-c-int-width": "32",
  "data-layout": "e-m:e-p:32:32-i1:8:32-i8:8:32-i16:16:32-i64:64-v128:64:128-a:0:32-n32-S64",
  "linker-flavor": "gcc",
  "features": "+v7,+thumb2"
}
