{
  "arch": "x86_64",
  "os": "none",
  "vendor": "gem5",

  "cpu": "x86-64",
  "data-layout": "e-m:e-p270:32:32-p271:32:32-p272:64:64-i64:64-f80:128-n8:16:32:64-S128",
  "dynamic-linking": false,
  "eliminate-frame-pointer": false,
  "env": "gnu",
  "exe-allocation-crate": "alloc_jemalloc",
  "executables": true,
  "has-elf-tls": true,
  "has-rpath": true,
  "is-builtin": true,
  "linker-flavor": "gcc",
  "linker-is-gnu": true,
  "llvm-target": "x86_64-unknown-linux-gnu",
  "max-atomic-width": 64,
  "position-independent-executables": false,
  "pre-link-args": {
    "gcc": [
      "-Wl,--as-needed",
      "-Wl,-z,noexecstack",
      "-m64"
    ]
  },
  "relro-level": "full",
  "target-c-int-width": "32",
  "target-endian": "little",
  "target-family": "unix",
  "target-pointer-width": "64",
  "features": "-mmx,-sse,+soft-float"
}
